{
  "name": "",
  "css_prefix_text": "icon-",
  "css_use_suffix": false,
  "hinting": true,
  "units_per_em": 1000,
  "ascent": 850,
  "glyphs": [
    {
      "uid": "627abcdb627cb1789e009c08e2678ef9",
      "css": "twitter",
      "code": 61593,
      "src": "fontawesome"
    },
    {
      "uid": "4743b088aa95d6f3b6b990e770d3b647",
      "css": "facebook-squared",
      "code": 62216,
      "src": "fontawesome"
    },
    {
      "uid": "0fbfb1cd7a847c88ea4c141d0e1bbdb5",
      "css": "instagram",
      "code": 62253,
      "src": "entypo"
    }
  ]
}